Project_1/010detector.vcd
$date
	Wed Apr  9 22:11:07 2025
$end
$version
	Icarus Verilog
$end
$timescale
	100ps
$end
$scope module detector_tb $end
$scope module UUT $end
$var wire 1 ! clk $end
$var wire 1 " in $end
$var wire 1 # reset $end
$var parameter 2 $ Got0 $end
$var parameter 2 % Got01 $end
$var parameter 2 & Got010 $end
$var parameter 2 ' Init $end
$var reg 1 ( out $end
$var reg 2 ) scurr [1:0] $end
$var reg 2 * snext [1:0] $end
$upscope $end
$upscope $end
$enddefinitions $end
$comment Show the parameter values. $end
$dumpall
b0 '
b11 &
b10 %
b1 $
$end
#0
$dumpvars
bx *
bx )
x(
0#
0"
0!
$end
#5
0(
b1 *
b0 )
1#
1!
#10
0!
#15
1!
#20
0!
0#
#25
b1 )
1!
#30
0!
#35
1!
#40
0!
#45
1!
#50
0!
#55
1!
#60
0!
#65
1!
#70
b10 *
0!
1"
#75
b0 *
b10 )
1!
#80
0!
#85
b0 )
1!
#90
b1 *
0!
0"
#95
b1 )
1!
#100
b10 *
0!
1"
#105
b0 *
b10 )
1!
#110
0!
#115
b0 )
1!
#120
0!
#125
1!
#130
0!
#135
1!
#140
0!
#145
1!
#150
b1 *
0!
0"
#155
b1 )
1!
#160
b10 *
0!
1"
#165
b0 *
b10 )
1!
#170
b11 *
0!
0"
#175
1(
b1 *
b11 )
1!
#180
0!
#185
0(
b1 )
1!
#190
0!
#195
1!
#200
0!
#205
1!
#210
b10 *
0!
1"
#215
b0 *
b10 )
1!
#220
b11 *
0!
0"
#225
1(
b1 *
b11 )
1!
#230
b10 *
0!
1"
#235
0(
b0 *
b10 )
1!
#240
0!
#245
b0 )
1!
#250
b1 *
0!
0"
#255
b1 )
1!
#260
0!
#265
1!
#270
b10 *
0!
1"
#275
b0 *
b10 )
1!
#280
b11 *
0!
0"
#285
1(
b1 *
b11 )
1!
#290
b10 *
0!
1"
#295
0(
b0 *
b10 )
1!
#300
0!
#305
b0 )
1!
#310
b1 *
0!
0"
#315
b1 )
1!
#320
0!
#325
1!
#330
b10 *
0!
1"
#335
b0 *
b10 )
1!
#340
0!
#345
b0 )
1!
#350
0!
#355
1!
#360
0!
#365
1!
#370
b1 *
0!
0"
#375
b1 )
1!
#380
0!
#385
1!
#390
0!
#395
1!
#400
0!
#405
1!
#410
b10 *
0!
1"
#415
b0 *
b10 )
1!
#420
b11 *
0!
0"
#425
1(
b1 *
b11 )
1!
#430
b10 *
0!
1"
#435
0(
b0 *
b10 )
1!
#440
0!
#445
b0 )
1!
#450
b1 *
0!
0"
#455
b1 )
1!
#460
b10 *
0!
1"
#465
b0 *
b10 )
1!
#470
b11 *
0!
0"
#475
1(
b1 *
b11 )
1!
#480
b10 *
0!
1"
#485
0(
b0 *
b10 )
1!
#490
b11 *
0!
0"
#495
1(
b1 *
b11 )
1!
#500
b10 *
0!
1"
#505
0(
b0 *
b10 )
1!
#510
0!
#515
b0 )
1!
#520
0!
#525
1!
#530
b1 *
0!
0"
#535
b1 )
1!
#540
b10 *
0!
1"
#545
b0 *
b10 )
1!
#550
0!
#555
b0 )
1!
#560
b1 *
0!
0"
#565
b1 )
1!
#570
b10 *
0!
1"
#575
b0 *
b10 )
1!
#580
0!
#585
b0 )
1!
#590
0!
#595
1!
#600
b1 *
0!
0"
#605
b1 )
1!
#610
0!
#615
1!
#620
0!
#625
1!
#630
0!
#635
1!
#640
0!
#645
1!
#650
b10 *
0!
1"
#655
b0 *
b10 )
1!
#660
b11 *
0!
0"
#665
1(
b1 *
b11 )
1!
#670
b10 *
0!
1"
#675
0(
b0 *
b10 )
1!
#680
0!
#685
b0 )
1!
#690
0!
#695
1!
#700
0!
#705
1!
#710
0!
#715
1!
#720
b1 *
0!
0"
#725
b1 )
1!
#730
b10 *
0!
1"
#735
b0 *
b10 )
1!
#740
b11 *
0!
0"
#745
1(
b1 *
b11 )
1!
#750
b10 *
0!
1"
#755
0(
b0 *
b10 )
1!
#760
0!
#765
b0 )
1!
#770
b1 *
0!
0"
#775
b1 )
1!
#780
b10 *
0!
1"
#785
b0 *
b10 )
1!
#790
0!
#795
b0 )
1!
#800
b1 *
0!
0"
#805
b1 )
1!
#810
b10 *
0!
1"
#815
b0 *
b10 )
1!
#820
0!
#825
b0 )
1!
#830
0!
#835
1!
#840
b1 *
0!
0"
#845
b1 )
1!
#850
b10 *
0!
1"
#855
b0 *
b10 )
1!
#860
b11 *
0!
0"
#865
1(
b1 *
b11 )
1!
#870
b10 *
0!
1"
#875
0(
b0 *
b10 )
1!
#880
b11 *
0!
0"
#885
1(
b1 *
b11 )
1!
#890
b10 *
0!
1"
#895
0(
b0 *
b10 )
1!
#900
b11 *
0!
0"
#905
1(
b1 *
b11 )
1!
#910
0!
#915
0(
b1 )
1!
#920
0!
#925
1!
#930
0!
#935
1!
#940
b10 *
0!
1"
#945
b0 *
b10 )
1!
#950
b11 *
0!
0"
#955
1(
b1 *
b11 )
1!
#960
b10 *
0!
1"
#965
0(
b0 *
b10 )
1!
#970
b11 *
0!
0"
#975
1(
b1 *
b11 )
1!
#980
0!
#985
0(
b1 )
1!
#990
0!
#995
1!
#1000
b10 *
0!
1"
#1005
b0 *
b10 )
1!
#1010
b11 *
0!
0"
#1015
1(
b1 *
b11 )
1!
#1020
0!
#1025
0(
b1 )
1!
#1030
b10 *
0!
1"
#1035
b0 *
b10 )
1!
#1040
0!
#1045
b0 )
1!
#1050
b1 *
0!
0"
#1055
b1 )
1!
#1060
0!
#1065
1!
#1070
0!
#1075
1!
#1080
0!
#1085
1!
#1090
b10 *
0!
1"
#1095
b0 *
b10 )
1!
#1100
0!
#1105
b0 )
1!
#1110
0!
#1115
1!
#1120
b1 *
0!
0"
#1125
b1 )
1!
#1130
0!
#1135
1!
#1140
b10 *
0!
1"
#1145
b0 *
b10 )
1!
#1150
b11 *
0!
0"
#1155
1(
b1 *
b11 )
1!
#1160
0!
#1165
0(
b1 )
1!
#1170
0!
#1175
1!
#1180
0!
#1185
1!
#1190
b10 *
0!
1"
#1195
b0 *
b10 )
1!
#1200
0!
#1205
b0 )
1!
#1210
b1 *
0!
0"
#1215
b1 )
1!
#1220
0!
#1225
1!
#1230
b10 *
0!
1"
#1235
b0 *
b10 )
1!
#1240
0!
#1245
b0 )
1!
#1250
b1 *
0!
0"
#1255
b1 )
1!
#1260
b10 *
0!
1"
#1265
b0 *
b10 )
1!
#1270
b11 *
0!
0"
#1275
1(
b1 *
b11 )
1!
#1280
0!
#1285
0(
b1 )
1!
#1290
b10 *
0!
1"
#1295
b0 *
b10 )
1!
#1300
b11 *
0!
0"
#1305
1(
b1 *
b11 )
1!
